{
    "total": 23,
    "result": [
        {
            "title": "Snowball",
            "imageurl": "http://s3.amazonaws.com/publicranks-games/images/snowball.jpg",
            "swfurl": "http://s3.amazonaws.com/publicranks-games/snowball.swf"
        },
        {
            "title": "Sonica",
            "imageurl": "http://s3.amazonaws.com/publicranks-games/images/sonica.jpg",
            "swfurl": "http://s3.amazonaws.com/publicranks-games/sonica.swf"
        },
        {
            "title": "Space Shooter Game",
            "imageurl": "http://s3.amazonaws.com/publicranks-games/images/spaceshootergame.jpg",
            "swfurl": "http://s3.amazonaws.com/publicranks-games/spaceshootergame.swf"
        },
        {
            "title": "Spheroids",
            "imageurl": "http://s3.amazonaws.com/publicranks-games/images/spheroids.jpg",
            "swfurl": "http://s3.amazonaws.com/publicranks-games/spheroids.swf"
        },
        {
            "title": "Spiderman",
            "imageurl": "http://s3.amazonaws.com/publicranks-games/images/spiderman.jpg",
            "swfurl": "http://s3.amazonaws.com/publicranks-games/spiderman.swf"
        },
        {
            "title": "Spore",
            "imageurl": "http://s3.amazonaws.com/publicranks-games/images/spore.jpg",
            "swfurl": "http://s3.amazonaws.com/publicranks-games/spore.swf"
        },
        {
            "title": "Starfighter",
            "imageurl": "http://s3.amazonaws.com/publicranks-games/images/starfighter.jpg",
            "swfurl": "http://s3.amazonaws.com/publicranks-games/starfighter.swf"
        },
        {
            "title": "Starrshaw",
            "imageurl": "http://s3.amazonaws.com/publicranks-games/images/starrshaw.jpg",
            "swfurl": "http://s3.amazonaws.com/publicranks-games/starrshaw.swf"
        },
        {
            "title": "Super Hacky Sack",
            "imageurl": "http://s3.amazonaws.com/publicranks-games/images/superhackysack.jpg",
            "swfurl": "http://s3.amazonaws.com/publicranks-games/superhackysack.swf"
        },
        {
            "title": "Super Pilot",
            "imageurl": "http://s3.amazonaws.com/publicranks-games/images/superpilot.jpg",
            "swfurl": "http://s3.amazonaws.com/publicranks-games/superpilot.swf"
        },
        {
            "title": "The Core",
            "imageurl": "http://s3.amazonaws.com/publicranks-games/images/thecore.jpg",
            "swfurl": "http://s3.amazonaws.com/publicranks-games/thecore.swf"
        },
        {
            "title": "The Daring Dozen",
            "imageurl": "http://s3.amazonaws.com/publicranks-games/images/thedaringdozen.jpg",
            "swfurl": "http://s3.amazonaws.com/publicranks-games/thedaringdozen.swf"
        },
        {
            "title": "The Pumpkin",
            "imageurl": "http://s3.amazonaws.com/publicranks-games/images/thepumpkin.jpg",
            "swfurl": "http://s3.amazonaws.com/publicranks-games/thepumpkin.swf"
        },
        {
            "title": "The Revenge of the Red Apple",
            "imageurl": "http://s3.amazonaws.com/publicranks-games/images/therevengeoftheredapple.jpg",
            "swfurl": "http://s3.amazonaws.com/publicranks-games/therevengeoftheredapple.swf"
        },
        {
            "title": "Tin Toss",
            "imageurl": "http://s3.amazonaws.com/publicranks-games/images/tintoss.jpg",
            "swfurl": "http://s3.amazonaws.com/publicranks-games/tintoss.swf"
        },
        {
            "title": "Touchdown",
            "imageurl": "http://s3.amazonaws.com/publicranks-games/images/touchdown.jpg",
            "swfurl": "http://s3.amazonaws.com/publicranks-games/touchdown.swf"
        },
        {
            "title": "Treaty Thieve",
            "imageurl": "http://s3.amazonaws.com/publicranks-games/images/treatythieve.jpg",
            "swfurl": "http://s3.amazonaws.com/publicranks-games/treatythieve.swf"
        },
        {
            "title": "Tunnel 2",
            "imageurl": "http://s3.amazonaws.com/publicranks-games/images/tunnel2.jpg",
            "swfurl": "http://s3.amazonaws.com/publicranks-games/tunnel2.swf"
        },
        {
            "title": "Virtuaworm",
            "imageurl": "http://s3.amazonaws.com/publicranks-games/images/virtuaworm.jpg",
            "swfurl": "http://s3.amazonaws.com/publicranks-games/virtuaworm.swf"
        },
        {
            "title": "War On Spam",
            "imageurl": "http://s3.amazonaws.com/publicranks-games/images/waronspam.jpg",
            "swfurl": "http://s3.amazonaws.com/publicranks-games/waronspam.swf"
        },
        {
            "title": "Worm",
            "imageurl": "http://s3.amazonaws.com/publicranks-games/images/worm.jpg",
            "swfurl": "http://s3.amazonaws.com/publicranks-games/worm.swf"
        },
        {
            "title": "Zaphod And Aztec",
            "imageurl": "http://s3.amazonaws.com/publicranks-games/images/zaphodandaztec.jpg",
            "swfurl": "http://s3.amazonaws.com/publicranks-games/zaphodandaztec.swf"
        },
        {
            "title": "Zeno Blaster",
            "imageurl": "http://s3.amazonaws.com/publicranks-games/images/zenoblaster.jpg",
            "swfurl": "http://s3.amazonaws.com/publicranks-games/zenoblaster.swf"
        }
    ]
}