{
    "total": 20,
    "result": [
        {
            "title": "Garbageman",
            "imageurl": "http://s3.amazonaws.com/publicranks-games/images/garbageman.jpg",
            "swfurl": "http://s3.amazonaws.com/publicranks-games/garbageman.swf"
        },
        {
            "title": "Gary and the attack of the brain eating shape shifters from mars",
            "imageurl": "http://s3.amazonaws.com/publicranks-games/images/garyandtheattackofthebraineatingshapeshiftersfrommars.jpg",
            "swfurl": "http://s3.amazonaws.com/publicranks-games/garyandtheattackofthebraineatingshapeshiftersfrommars.swf"
        },
        {
            "title": "Gigracer",
            "imageurl": "http://s3.amazonaws.com/publicranks-games/images/gigracer.jpg",
            "swfurl": "http://s3.amazonaws.com/publicranks-games/gigracer.swf"
        },
        {
            "title": "Goldwell",
            "imageurl": "http://s3.amazonaws.com/publicranks-games/images/goldwell.jpg",
            "swfurl": "http://s3.amazonaws.com/publicranks-games/goldwell.swf"
        },
        {
            "title": "Gordons Gate",
            "imageurl": "http://s3.amazonaws.com/publicranks-games/images/gordonsgate.jpg",
            "swfurl": "http://s3.amazonaws.com/publicranks-games/gordonsgate.swf"
        },
        {
            "title": "Grave Robber",
            "imageurl": "http://s3.amazonaws.com/publicranks-games/images/graverobber.jpg",
            "swfurl": "http://s3.amazonaws.com/publicranks-games/graverobber.swf"
        },
        {
            "title": "Gravity Ball 2",
            "imageurl": "http://s3.amazonaws.com/publicranks-games/images/gravityball2.jpg",
            "swfurl": "http://s3.amazonaws.com/publicranks-games/gravityball2.swf"
        },
        {
            "title": "Happy Tree Friends Dynamit",
            "imageurl": "http://s3.amazonaws.com/publicranks-games/images/happytreefriendsdynamit.jpg",
            "swfurl": "http://s3.amazonaws.com/publicranks-games/happytreefriendsdynamit.swf"
        },
        {
            "title": "Helicopter",
            "imageurl": "http://s3.amazonaws.com/publicranks-games/images/helicopter.jpg",
            "swfurl": "http://s3.amazonaws.com/publicranks-games/helicopter.swf"
        },
        {
            "title": "Holy Cow",
            "imageurl": "http://s3.amazonaws.com/publicranks-games/images/holycow.jpg",
            "swfurl": "http://s3.amazonaws.com/publicranks-games/holycow.swf"
        },
        {
            "title": "Homers Beer Run",
            "imageurl": "http://s3.amazonaws.com/publicranks-games/images/homersbeerrun.jpg",
            "swfurl": "http://s3.amazonaws.com/publicranks-games/homersbeerrun.swf"
        },
        {
            "title": "Honey Bunny",
            "imageurl": "http://s3.amazonaws.com/publicranks-games/images/honeybunny.jpg",
            "swfurl": "http://s3.amazonaws.com/publicranks-games/honeybunny.swf"
        },
        {
            "title": "Hunga Hatch",
            "imageurl": "http://s3.amazonaws.com/publicranks-games/images/hungahatch.jpg",
            "swfurl": "http://s3.amazonaws.com/publicranks-games/hungahatch.swf"
        },
        {
            "title": "Hungry Hungry Mario",
            "imageurl": "http://s3.amazonaws.com/publicranks-games/images/hungryhungrymario.jpg",
            "swfurl": "http://s3.amazonaws.com/publicranks-games/hungryhungrymario.swf"
        },
        {
            "title": "Hungry Space",
            "imageurl": "http://s3.amazonaws.com/publicranks-games/images/hungryspace.jpg",
            "swfurl": "http://s3.amazonaws.com/publicranks-games/hungryspace.swf"
        },
        {
            "title": "Insane Orb",
            "imageurl": "http://s3.amazonaws.com/publicranks-games/images/insaneorb.jpg",
            "swfurl": "http://s3.amazonaws.com/publicranks-games/insaneorb.swf"
        },
        {
            "title": "Invasion",
            "imageurl": "http://s3.amazonaws.com/publicranks-games/images/invasion.jpg",
            "swfurl": "http://s3.amazonaws.com/publicranks-games/invasion.swf"
        },
        {
            "title": "Jouer",
            "imageurl": "http://s3.amazonaws.com/publicranks-games/images/jouer.jpg",
            "swfurl": "http://s3.amazonaws.com/publicranks-games/jouer.swf"
        },
        {
            "title": "Jumperman",
            "imageurl": "http://s3.amazonaws.com/publicranks-games/images/jumperman.jpg",
            "swfurl": "http://s3.amazonaws.com/publicranks-games/jumperman.swf"
        },
        {
            "title": "Kill The Pacman",
            "imageurl": "http://s3.amazonaws.com/publicranks-games/images/killthepacman.jpg",
            "swfurl": "http://s3.amazonaws.com/publicranks-games/killthepacman.swf"
        }
    ]
}